<svg xmlns="http://www.w3.org/2000/svg" width="22" height="21" viewBox="0 0 22 21">
  <path fill="#666666" fill-rule="evenodd" d="M279.15102,2159.01666 C279.067834,2158.9707 278.931883,2158.9707 278.848697,2159.01666 L272.299843,2162.63462 C272.216829,2162.68042 272.163892,2162.64259 272.182454,2162.55049 L273.64526,2155.28574 C273.663822,2155.1933 273.621714,2155.06574 273.551762,2155.00214 L268.041704,2149.97329 C267.971752,2149.90951 267.991861,2149.84828 268.086563,2149.83709 L275.539294,2148.96491 C275.633996,2148.95389 275.743994,2148.87501 275.783868,2148.78952 L278.927414,2142.06399 C278.967289,2141.97867 279.0326,2141.97867 279.072647,2142.06399 L282.216193,2148.78952 C282.256067,2148.87484 282.366237,2148.95389 282.460767,2148.96491 L289.913326,2149.83709 C290.008028,2149.84811 290.028309,2149.90951 289.958357,2149.97329 L284.448128,2155.00214 C284.378176,2155.06574 284.336239,2155.1933 284.354801,2155.28574 L285.817263,2162.55049 C285.835825,2162.64259 285.783232,2162.68042 285.699874,2162.63462 L279.15102,2159.01666 L279.15102,2159.01666 Z" transform="translate(-268 -2142)"/>
</svg>
